{
  "tooling": {
    "names": ["tooling"],
    "env": {
      "account": "915219473194",
      "region": "us-east-1"
    },
    "hostedZoneName": "",
    "hostedZoneId": "",
    "isProduction": false
  },
  "dev": {
    "names": ["dev"],
    "env": {
      "account": "246597006913",
      "region": "us-east-1"
    },
    "hostedZoneName": "dev.home.powerschoolcorp.com",
    "hostedZoneId": "Z06267001AYWSW1H4JP5T",
    "districtSettingsIssuer": "https://int.services.powerschoolcorp.com/",
    "authIssuers": [
      "https://powerschool-int.powerschool-dev.auth0.com/",
      "https://int.auth.powerschoolcorp.com/"
    ],
    "isProduction": false
  },
  "qa": {
    "names": ["qa"],
    "env": {
      "account": "246597006913",
      "region": "us-east-1"
    },
    "hostedZoneName": "qa.home.powerschoolcorp.com",
    "hostedZoneId": "Z01486663NL7L42T7JLD2",
    "districtSettingsIssuer": "https://stg.services.powerschoolcorp.com/",
    "authIssuers": [
      "https://powerschool-int.powerschool-dev.auth0.com/",
      "https://int.auth.powerschoolcorp.com/"
    ],
    "isProduction": false
  },
  "produs": {
    "names": ["produs"],
    "env": {
      "account": "688739388178",
      "region": "us-east-1"
    },
    "hostedZoneName": "XXXX.powerschool.com",
    "hostedZoneId": "XXXXXXXXXXXXXXXXXXXXXX",
    "districtSettingsIssuer": "https://produs.services.powerschool.com/",
    "authIssuers": [
      "https://powerschool-produs.powerschool.auth0app.com/",
      "https://auth.powerschool.com/"
    ],
    "isProduction": true
  }
}
